<?xml version="1.0" encoding="utf-8"?>
<!-- Generator: Adobe Illustrator 16.0.0, SVG Export Plug-In . SVG Version: 6.00 Build 0)  -->
<svg version="1.2" baseProfile="tiny" id="Layer_1" xmlns="http://www.w3.org/2000/svg" xmlns:xlink="http://www.w3.org/1999/xlink"
	 x="0px" y="0px" width="30px" height="30px" viewBox="0 0 30 30" xml:space="preserve">
<g id="DO_NOT_EDIT_-_BOUNDING_BOX">
	<rect id="BOUNDING_BOX" fill="none" width="30" height="30"/>
</g>
<g id="PLACE_YOUR_GRAPHIC_HERE">
	<path fill="#FFFFFF" d="M15.001,17.001L7.708,9.706c-0.391-0.389-1.025-0.389-1.414,0l-1.586,1.586
		c-0.391,0.39-0.391,1.025,0,1.415l9.586,9.587c0.389,0.389,1.022,0.389,1.414,0l9.586-9.587c0.389-0.39,0.389-1.025,0-1.415
		l-1.586-1.586c-0.389-0.389-1.025-0.389-1.414,0L15.001,17.001z"/>
</g>
</svg>
